void Main()
    labels
        L0, L1;
    types
        integral = integer;
        bool = boolean;
    vars
        m, n, s: integer;
        v, t: integer[2][3][4];
{
    m = read();
    n = read();
    s = m+n;
    write(s)
}
